%YAML 1.1
%TAG !u! tag:unity3d.com,2011:
--- !u!74 &7400000
AnimationClip:
  m_ObjectHideFlags: 0
  m_CorrespondingSourceObject: {fileID: 0}
  m_PrefabInstance: {fileID: 0}
  m_PrefabAsset: {fileID: 0}
  m_Name: btcAnimation
  serializedVersion: 6
  m_Legacy: 0
  m_Compressed: 0
  m_UseHighQualityCurve: 1
  m_RotationCurves: []
  m_CompressedRotationCurves: []
  m_EulerCurves: []
  m_PositionCurves: []
  m_ScaleCurves: []
  m_FloatCurves: []
  m_PPtrCurves:
  - curve:
    - time: 0
      value: {fileID: 21300000, guid: 4298f3fa6a521cc47bf8ef0b30b1e130, type: 3}
    - time: 0.083333336
      value: {fileID: 21300000, guid: ca76a732f0d1fe546bd552cd707af137, type: 3}
    - time: 0.16666667
      value: {fileID: 21300000, guid: b7d34d39227999444b8851e96fc9ef40, type: 3}
    - time: 0.25
      value: {fileID: 21300000, guid: 209bb43cc3d2a7d4ba1ad0dc64e4bf80, type: 3}
    - time: 0.33333334
      value: {fileID: 21300000, guid: 70e430c0c10f230458db2f0d2e03b93f, type: 3}
    - time: 0.41666666
      value: {fileID: 21300000, guid: 855fbe2a5d5f9564199429dae29b71ca, type: 3}
    - time: 0.5
      value: {fileID: 21300000, guid: d29a4ef3ee2a4174b83e890abb232e0b, type: 3}
    - time: 0.5833333
      value: {fileID: 21300000, guid: 37f56d4afebfb534fb656442ff355e55, type: 3}
    - time: 0.6666667
      value: {fileID: 21300000, guid: 6520d434ab5f59d4986c72d46b6c9d20, type: 3}
    - time: 0.75
      value: {fileID: 21300000, guid: d000e273a1a006041b2f6dec55960082, type: 3}
    - time: 0.8333333
      value: {fileID: 21300000, guid: abf84ef0d63bdb744a8762d6cec72774, type: 3}
    - time: 0.9166667
      value: {fileID: 21300000, guid: a13f44066db954144846df1f375edc51, type: 3}
    - time: 1
      value: {fileID: 21300000, guid: 1c3f225228dddf4478dca63249cb4dbf, type: 3}
    - time: 1.0833334
      value: {fileID: 21300000, guid: 91643b1063ee52a4d94ba07aeabfda49, type: 3}
    - time: 1.1666666
      value: {fileID: 21300000, guid: fba4cd28a79600d4da988cd47db4fb83, type: 3}
    - time: 1.25
      value: {fileID: 21300000, guid: 3177e1d12d79b8d42909f037a594dac5, type: 3}
    - time: 1.3333334
      value: {fileID: 21300000, guid: 5c920e55c0562f2458240b3d075815ec, type: 3}
    - time: 1.4166666
      value: {fileID: 21300000, guid: b1b20e295faede64881d963c6c937a48, type: 3}
    - time: 1.5
      value: {fileID: 21300000, guid: 7d1198820d4249447b26fb3c289bae5c, type: 3}
    - time: 1.5833334
      value: {fileID: 21300000, guid: dcb483136bc9eb6468caa6d330abd694, type: 3}
    - time: 1.6666666
      value: {fileID: 21300000, guid: 3eaec108b9c3364448573fdba2593811, type: 3}
    - time: 1.75
      value: {fileID: 21300000, guid: 49848bed34fccc842881d15a0d4726be, type: 3}
    - time: 1.8333334
      value: {fileID: 21300000, guid: bd25526d57992e145b04b97b54b1337a, type: 3}
    - time: 1.9166666
      value: {fileID: 21300000, guid: b45901768f78f3c4ea15c3b3e866b2ce, type: 3}
    - time: 2
      value: {fileID: 21300000, guid: 3ce0ea905b1e54a4892d753faba31647, type: 3}
    - time: 2.0833333
      value: {fileID: 21300000, guid: d4c0c7d7f276fea44bd909e698e0d57b, type: 3}
    - time: 2.1666667
      value: {fileID: 21300000, guid: 44e0e50ca114aa848b5dbd48f88217a0, type: 3}
    - time: 2.25
      value: {fileID: 21300000, guid: 7ac1e2d5e4ae64e4088afed8a6b10ea4, type: 3}
    - time: 2.3333333
      value: {fileID: 21300000, guid: 4798545e5c21dba49aaa2cd9ea71bc26, type: 3}
    - time: 2.4166667
      value: {fileID: 21300000, guid: 924e2c16f55d35f4780c6ea3d036dce0, type: 3}
    - time: 2.5
      value: {fileID: 21300000, guid: 6f3dae591aa8bc7499a8ebd21c21d67b, type: 3}
    - time: 2.5833333
      value: {fileID: 21300000, guid: c9157739ef768b043a6202464f18f868, type: 3}
    - time: 2.6666667
      value: {fileID: 21300000, guid: 398b8a432de2e3f40a3284195e1a73ff, type: 3}
    - time: 2.75
      value: {fileID: 21300000, guid: 2dcdc89a1668a9b479d9feb82d7dffee, type: 3}
    - time: 2.8333333
      value: {fileID: 21300000, guid: 892cbfc9499b2de4cac8129f15c00233, type: 3}
    - time: 2.9166667
      value: {fileID: 21300000, guid: 43e594c235ee5144fbd09c7ba0b308b9, type: 3}
    - time: 3
      value: {fileID: 21300000, guid: 8060d9e76ee662a4fb46ecabfaba2235, type: 3}
    - time: 3.0833333
      value: {fileID: 21300000, guid: 56dffdc12cc2fed418d96d5fe19babfc, type: 3}
    - time: 3.1666667
      value: {fileID: 21300000, guid: 3c79f192b8d35dd4db24b6c7e0e33213, type: 3}
    - time: 3.25
      value: {fileID: 21300000, guid: 54dd8ec57db5bed4b8c525346d3b5822, type: 3}
    - time: 3.3333333
      value: {fileID: 21300000, guid: 6fadf063ccecc8743b274658f470c932, type: 3}
    - time: 3.4166667
      value: {fileID: 21300000, guid: 56af47e3f28d5ee4f87fa8c521b28645, type: 3}
    - time: 3.5
      value: {fileID: 21300000, guid: 91a5d6c3ffde34c4db6020aee12b17bd, type: 3}
    - time: 3.5833333
      value: {fileID: 21300000, guid: ec4c8e19e7b56fd41ad038ddbc52e71d, type: 3}
    - time: 3.6666667
      value: {fileID: 21300000, guid: a86694cf320969f4683c970ba211561a, type: 3}
    - time: 3.75
      value: {fileID: 21300000, guid: ce7b9a88318dc6f44a2e7a784d101d1e, type: 3}
    - time: 3.8333333
      value: {fileID: 21300000, guid: c24b765ba2254834a89826303eae1793, type: 3}
    - time: 3.9166667
      value: {fileID: 21300000, guid: 88d042a06c05a6a418434a32c963e1d5, type: 3}
    - time: 4
      value: {fileID: 21300000, guid: b145884e458bdcf408d5cc25c1b83d38, type: 3}
    - time: 4.0833335
      value: {fileID: 21300000, guid: 22288d28a077a9948ac9b8334dd965f3, type: 3}
    attribute: m_Sprite
    path: 
    classID: 212
    script: {fileID: 0}
  m_SampleRate: 12
  m_WrapMode: 0
  m_Bounds:
    m_Center: {x: 0, y: 0, z: 0}
    m_Extent: {x: 0, y: 0, z: 0}
  m_ClipBindingConstant:
    genericBindings:
    - serializedVersion: 2
      path: 0
      attribute: 0
      script: {fileID: 0}
      typeID: 212
      customType: 23
      isPPtrCurve: 1
    pptrCurveMapping:
    - {fileID: 21300000, guid: 4298f3fa6a521cc47bf8ef0b30b1e130, type: 3}
    - {fileID: 21300000, guid: ca76a732f0d1fe546bd552cd707af137, type: 3}
    - {fileID: 21300000, guid: b7d34d39227999444b8851e96fc9ef40, type: 3}
    - {fileID: 21300000, guid: 209bb43cc3d2a7d4ba1ad0dc64e4bf80, type: 3}
    - {fileID: 21300000, guid: 70e430c0c10f230458db2f0d2e03b93f, type: 3}
    - {fileID: 21300000, guid: 855fbe2a5d5f9564199429dae29b71ca, type: 3}
    - {fileID: 21300000, guid: d29a4ef3ee2a4174b83e890abb232e0b, type: 3}
    - {fileID: 21300000, guid: 37f56d4afebfb534fb656442ff355e55, type: 3}
    - {fileID: 21300000, guid: 6520d434ab5f59d4986c72d46b6c9d20, type: 3}
    - {fileID: 21300000, guid: d000e273a1a006041b2f6dec55960082, type: 3}
    - {fileID: 21300000, guid: abf84ef0d63bdb744a8762d6cec72774, type: 3}
    - {fileID: 21300000, guid: a13f44066db954144846df1f375edc51, type: 3}
    - {fileID: 21300000, guid: 1c3f225228dddf4478dca63249cb4dbf, type: 3}
    - {fileID: 21300000, guid: 91643b1063ee52a4d94ba07aeabfda49, type: 3}
    - {fileID: 21300000, guid: fba4cd28a79600d4da988cd47db4fb83, type: 3}
    - {fileID: 21300000, guid: 3177e1d12d79b8d42909f037a594dac5, type: 3}
    - {fileID: 21300000, guid: 5c920e55c0562f2458240b3d075815ec, type: 3}
    - {fileID: 21300000, guid: b1b20e295faede64881d963c6c937a48, type: 3}
    - {fileID: 21300000, guid: 7d1198820d4249447b26fb3c289bae5c, type: 3}
    - {fileID: 21300000, guid: dcb483136bc9eb6468caa6d330abd694, type: 3}
    - {fileID: 21300000, guid: 3eaec108b9c3364448573fdba2593811, type: 3}
    - {fileID: 21300000, guid: 49848bed34fccc842881d15a0d4726be, type: 3}
    - {fileID: 21300000, guid: bd25526d57992e145b04b97b54b1337a, type: 3}
    - {fileID: 21300000, guid: b45901768f78f3c4ea15c3b3e866b2ce, type: 3}
    - {fileID: 21300000, guid: 3ce0ea905b1e54a4892d753faba31647, type: 3}
    - {fileID: 21300000, guid: d4c0c7d7f276fea44bd909e698e0d57b, type: 3}
    - {fileID: 21300000, guid: 44e0e50ca114aa848b5dbd48f88217a0, type: 3}
    - {fileID: 21300000, guid: 7ac1e2d5e4ae64e4088afed8a6b10ea4, type: 3}
    - {fileID: 21300000, guid: 4798545e5c21dba49aaa2cd9ea71bc26, type: 3}
    - {fileID: 21300000, guid: 924e2c16f55d35f4780c6ea3d036dce0, type: 3}
    - {fileID: 21300000, guid: 6f3dae591aa8bc7499a8ebd21c21d67b, type: 3}
    - {fileID: 21300000, guid: c9157739ef768b043a6202464f18f868, type: 3}
    - {fileID: 21300000, guid: 398b8a432de2e3f40a3284195e1a73ff, type: 3}
    - {fileID: 21300000, guid: 2dcdc89a1668a9b479d9feb82d7dffee, type: 3}
    - {fileID: 21300000, guid: 892cbfc9499b2de4cac8129f15c00233, type: 3}
    - {fileID: 21300000, guid: 43e594c235ee5144fbd09c7ba0b308b9, type: 3}
    - {fileID: 21300000, guid: 8060d9e76ee662a4fb46ecabfaba2235, type: 3}
    - {fileID: 21300000, guid: 56dffdc12cc2fed418d96d5fe19babfc, type: 3}
    - {fileID: 21300000, guid: 3c79f192b8d35dd4db24b6c7e0e33213, type: 3}
    - {fileID: 21300000, guid: 54dd8ec57db5bed4b8c525346d3b5822, type: 3}
    - {fileID: 21300000, guid: 6fadf063ccecc8743b274658f470c932, type: 3}
    - {fileID: 21300000, guid: 56af47e3f28d5ee4f87fa8c521b28645, type: 3}
    - {fileID: 21300000, guid: 91a5d6c3ffde34c4db6020aee12b17bd, type: 3}
    - {fileID: 21300000, guid: ec4c8e19e7b56fd41ad038ddbc52e71d, type: 3}
    - {fileID: 21300000, guid: a86694cf320969f4683c970ba211561a, type: 3}
    - {fileID: 21300000, guid: ce7b9a88318dc6f44a2e7a784d101d1e, type: 3}
    - {fileID: 21300000, guid: c24b765ba2254834a89826303eae1793, type: 3}
    - {fileID: 21300000, guid: 88d042a06c05a6a418434a32c963e1d5, type: 3}
    - {fileID: 21300000, guid: b145884e458bdcf408d5cc25c1b83d38, type: 3}
    - {fileID: 21300000, guid: 22288d28a077a9948ac9b8334dd965f3, type: 3}
  m_AnimationClipSettings:
    serializedVersion: 2
    m_AdditiveReferencePoseClip: {fileID: 0}
    m_AdditiveReferencePoseTime: 0
    m_StartTime: 0
    m_StopTime: 4.166667
    m_OrientationOffsetY: 0
    m_Level: 0
    m_CycleOffset: 0
    m_HasAdditiveReferencePose: 0
    m_LoopTime: 1
    m_LoopBlend: 0
    m_LoopBlendOrientation: 0
    m_LoopBlendPositionY: 0
    m_LoopBlendPositionXZ: 0
    m_KeepOriginalOrientation: 0
    m_KeepOriginalPositionY: 1
    m_KeepOriginalPositionXZ: 0
    m_HeightFromFeet: 0
    m_Mirror: 0
  m_EditorCurves: []
  m_EulerEditorCurves: []
  m_HasGenericRootTransform: 0
  m_HasMotionFloatCurves: 0
  m_Events: []
